singlecycle.vcd
$date
	Mon Nov 29 02:13:02 2021
$end
$version
	Icarus Verilog
$end
$timescale
	1ps
$end
$scope module SingleCycleProcTest_v $end
$var wire 64 ! dMemOut [63:0] $end
$var wire 64 " currentPC [63:0] $end
$var reg 1 # CLK $end
$var reg 1 $ Reset_L $end
$var reg 8 % passed [7:0] $end
$var reg 64 & startPC [63:0] $end
$var reg 16 ' watchdog [15:0] $end
$scope module uut $end
$var wire 1 # CLK $end
$var wire 1 $ resetl $end
$var wire 64 ( startpc [63:0] $end
$var wire 1 ) zero $end
$var wire 1 * uncond_branch $end
$var wire 3 + signop [2:0] $end
$var wire 5 , rn [4:0] $end
$var wire 5 - rm [4:0] $end
$var wire 1 . regwrite $end
$var wire 64 / regoutB [63:0] $end
$var wire 64 0 regoutA [63:0] $end
$var wire 64 1 reginW [63:0] $end
$var wire 1 2 reg2loc $end
$var wire 5 3 rd [4:0] $end
$var wire 11 4 opcode [10:0] $end
$var wire 64 5 nextpc [63:0] $end
$var wire 1 6 memwrite $end
$var wire 1 7 memread $end
$var wire 1 8 mem2reg $end
$var wire 32 9 instruction [31:0] $end
$var wire 64 : extimm [63:0] $end
$var wire 64 ; dmemout [63:0] $end
$var wire 1 < branch $end
$var wire 1 = alusrc $end
$var wire 64 > aluout [63:0] $end
$var wire 4 ? aluctrl [3:0] $end
$var wire 64 @ aluBusB [63:0] $end
$var reg 64 A currentpc [63:0] $end
$scope module alu $end
$var wire 64 B BusB [63:0] $end
$var wire 1 ) Zero $end
$var wire 64 C BusA [63:0] $end
$var wire 4 D ALUCtrl [3:0] $end
$var reg 64 E BusW [63:0] $end
$upscope $end
$scope module control $end
$var wire 11 F opcode [10:0] $end
$var reg 4 G aluop [3:0] $end
$var reg 1 = alusrc $end
$var reg 1 < branch $end
$var reg 1 8 mem2reg $end
$var reg 1 7 memread $end
$var reg 1 6 memwrite $end
$var reg 1 2 reg2loc $end
$var reg 1 . regwrite $end
$var reg 3 H signop [2:0] $end
$var reg 1 * uncond_branch $end
$upscope $end
$scope module dataMemory $end
$var wire 64 I Address [63:0] $end
$var wire 1 # Clock $end
$var wire 1 7 MemoryRead $end
$var wire 1 6 MemoryWrite $end
$var wire 64 J WriteData [63:0] $end
$var reg 64 K ReadData [63:0] $end
$scope task initset $end
$var reg 64 L addr [63:0] $end
$var reg 64 M data [63:0] $end
$upscope $end
$upscope $end
$scope module imem $end
$var wire 64 N Address [63:0] $end
$var reg 32 O Data [31:0] $end
$upscope $end
$scope module nextPCLogic $end
$var wire 1 ) ALUZero $end
$var wire 1 < Branch $end
$var wire 64 P CurrentPC [63:0] $end
$var wire 64 Q NextPC [63:0] $end
$var wire 1 * Uncondbranch $end
$var wire 64 R SignExtImm64 [63:0] $end
$var reg 64 S test [63:0] $end
$upscope $end
$scope module regFile $end
$var wire 64 T BusA [63:0] $end
$var wire 64 U BusB [63:0] $end
$var wire 64 V BusW [63:0] $end
$var wire 1 # Clk $end
$var wire 5 W RA [4:0] $end
$var wire 5 X RB [4:0] $end
$var wire 5 Y RW [4:0] $end
$var wire 1 . RegWr $end
$upscope $end
$scope module signExtender $end
$var wire 3 Z Ctrl [2:0] $end
$var wire 26 [ Imm26 [25:0] $end
$var reg 64 \ BusImm [63:0] $end
$upscope $end
$upscope $end
$scope task allPassed $end
$var reg 8 ] numTests [7:0] $end
$var reg 8 ^ passed [7:0] $end
$upscope $end
$scope task passTest $end
$var reg 64 _ actualOut [63:0] $end
$var reg 64 ` expectedOut [63:0] $end
$var reg 8 a passed [7:0] $end
$var reg 257 b testType [256:0] $end
$upscope $end
$upscope $end
$enddefinitions $end
#0
$dumpvars
bx b
bx a
bx `
bx _
bx ^
bx ]
b0xxxxxxxxxxxx \
bx [
b0 Z
bx Y
bx X
bx W
bx V
bx U
bx T
bx S
b0xxxxxxxxxxxx R
bx Q
bx P
bx O
bx N
b0 M
b100000 L
bx K
bx J
bx I
b0 H
b0 G
bx F
bx E
b0 D
bx C
bx B
bx A
bx @
b0 ?
bx >
0=
0<
bx ;
b0xxxxxxxxxxxx :
bx 9
08
07
06
bx 5
bx 4
bx 3
02
bx 1
bx 0
bx /
0.
bx -
bx ,
b0 +
0*
x)
b0 (
b0 '
b0 &
b0 %
1$
0#
bx "
bx !
$end
#60000
1#
#120000
b1 '
0#
#121000
0$
#180000
1#
#240000
b0 "
b0 A
b0 N
b0 P
b10 '
0#
#241000
1$
#242000
b100 5
b100 Q
b100 S
#244000
b0 @
b0 B
b1 +
b1 H
b1 Z
b10 ?
b10 D
b10 G
17
1.
18
1=
12
b0 :
b0 R
b0 \
b1001 ,
b1001 X
b10000000000001111101001 [
b11111000010 4
b11111000010 F
b11111 -
b11111 W
b1001 3
b1001 Y
b11111000010000000000001111101001 9
b11111000010000000000001111101001 O
#246000
b0 0
b0 C
b0 T
#266000
b0 >
b0 E
b0 I
#267000
1)
#300000
1#
#320000
b1 1
b1 V
b1 !
b1 ;
b1 K
#360000
b100 "
b100 A
b100 N
b100 P
b11 '
0#
#362000
b1000 5
b1000 Q
b1000 S
#364000
b1000 @
b1000 B
b1000 :
b1000 R
b1000 \
b1010 ,
b1010 X
b10000001000001111101010 [
b1010 3
b1010 Y
b11111000010000001000001111101010 9
b11111000010000001000001111101010 O
#384000
b1000 >
b1000 E
b1000 I
#385000
0)
#420000
1#
#440000
b1010 1
b1010 V
b1010 !
b1010 ;
b1010 K
#480000
b1000 "
b1000 A
b1000 N
b1000 P
b100 '
0#
#482000
b1100 5
b1100 Q
b1100 S
#484000
b10000 @
b10000 B
b10000 :
b10000 R
b10000 \
b1011 ,
b1011 X
b10000010000001111101011 [
b1011 3
b1011 Y
b11111000010000010000001111101011 9
b11111000010000010000001111101011 O
#504000
b10000 >
b10000 E
b10000 I
#540000
1#
#560000
b101 1
b101 V
b101 !
b101 ;
b101 K
#600000
b1100 "
b1100 A
b1100 N
b1100 P
b101 '
0#
#602000
b10000 5
b10000 Q
b10000 S
#604000
b11000 @
b11000 B
b11000 :
b11000 R
b11000 \
b1100 ,
b1100 X
b10000011000001111101100 [
b1100 3
b1100 Y
b11111000010000011000001111101100 9
b11111000010000011000001111101100 O
#624000
b11000 >
b11000 E
b11000 I
#660000
1#
#680000
b111111111011111010100111110111101010110110111110111011111111 1
b111111111011111010100111110111101010110110111110111011111111 V
b111111111011111010100111110111101010110110111110111011111111 !
b111111111011111010100111110111101010110110111110111011111111 ;
b111111111011111010100111110111101010110110111110111011111111 K
#720000
b10000 "
b10000 A
b10000 N
b10000 P
b110 '
0#
#722000
b10100 5
b10100 Q
b10100 S
#724000
b100000 @
b100000 B
b100000 :
b100000 R
b100000 \
b1101 ,
b1101 X
b10000100000001111101101 [
b1101 3
b1101 Y
b11111000010000100000001111101101 9
b11111000010000100000001111101101 O
#744000
b100000 >
b100000 E
b100000 I
#780000
1#
#800000
b0 1
b0 V
b0 !
b0 ;
b0 K
#840000
b10100 "
b10100 A
b10100 N
b10100 P
b111 '
0#
#842000
b11000 5
b11000 Q
b11000 S
#844000
b100000 1
b100000 V
bx +
bx H
bx Z
b1 ?
b1 D
b1 G
07
08
0=
02
bx @
bx B
b10110000 :
b10110000 R
b10110000 \
b1011 ,
b1011 X
b10000010110000000101001010 [
b10101010000 4
b10101010000 F
b1010 -
b1010 W
b1010 3
b1010 Y
b10101010000010110000000101001010 9
b10101010000010110000000101001010 O
#846000
b101 @
b101 B
b101 /
b101 J
b101 U
b1010 0
b1010 C
b1010 T
#864000
bx 1
bx V
bx >
bx E
bx I
#865000
x)
#866000
b1111 1
b1111 V
b1111 >
b1111 E
b1111 I
#867000
0)
#900000
1#
#960000
b11000 "
b11000 A
b11000 N
b11000 P
b1000 '
0#
#962000
b11100 5
b11100 Q
b11100 S
#964000
b0 ?
b0 D
b0 G
b1010 ,
b1010 X
b10000010100000000110001100 [
b10001010000 4
b10001010000 F
b1100 -
b1100 W
b1100 3
b1100 Y
b10001010000010100000000110001100 9
b10001010000010100000000110001100 O
#966000
b1111 @
b1111 B
b1111 /
b1111 J
b1111 U
b111111111011111010100111110111101010110110111110111011111111 0
b111111111011111010100111110111101010110110111110111011111111 C
b111111111011111010100111110111101010110110111110111011111111 T
#984000
b0 1
b0 V
b0 >
b0 E
b0 I
#985000
1)
#986000
b1111 1
b1111 V
b1111 >
b1111 E
b1111 I
#987000
0)
#1020000
1#
#1080000
b11100 "
b11100 A
b11100 N
b11100 P
b1001 '
0#
#1082000
b100000 5
b100000 Q
b100000 S
#1084000
b10000 :
b10000 R
b10000 \
b11 +
b11 H
b11 Z
b111 ?
b111 D
b111 G
1<
0.
12
b1100 ,
b1100 X
b10001100 [
b10110100000 4
b10110100000 F
b100 -
b100 W
b10110100000000000000000010001100 9
b10110100000000000000000010001100 O
#1086000
bx 0
bx C
bx T
#1140000
1#
#1200000
b100000 "
b100000 A
b100000 N
b100000 P
b1010 '
0#
#1202000
b100100 5
b100100 Q
b100100 S
#1204000
bx +
bx H
bx Z
b10 ?
b10 D
b10 G
0<
1.
02
b10010000000110100 :
b10010000000110100 R
b10010000000110100 \
b1001 ,
b1001 X
b11000010010000000110101101 [
b10001011000 4
b10001011000 F
b1101 -
b1101 W
b1101 3
b1101 Y
b10001011000010010000000110101101 9
b10001011000010010000000110101101 O
#1206000
b1 @
b1 B
b1 /
b1 J
b1 U
b0 0
b0 C
b0 T
#1224000
bx 1
bx V
bx >
bx E
bx I
#1225000
x)
#1226000
b1 1
b1 V
b1 >
b1 E
b1 I
#1227000
0)
#1260000
1#
#1320000
b100100 "
b100100 A
b100100 N
b100100 P
b1011 '
0#
#1322000
b101000 5
b101000 Q
b101000 S
#1324000
b110 ?
b110 D
b110 G
b11000010010000000110001100 [
b11001011000 4
b11001011000 F
b1100 -
b1100 W
b1100 3
b1100 Y
b11001011000010010000000110001100 9
b11001011000010010000000110001100 O
#1326000
b1111 0
b1111 C
b1111 T
#1344000
b1111111111111111111111111111111111111111111111111111111111111111 1
b1111111111111111111111111111111111111111111111111111111111111111 V
b1111111111111111111111111111111111111111111111111111111111111111 >
b1111111111111111111111111111111111111111111111111111111111111111 E
b1111111111111111111111111111111111111111111111111111111111111111 I
#1346000
b1110 1
b1110 V
b1110 >
b1110 E
b1110 I
#1380000
1#
#1440000
b101000 "
b101000 A
b101000 N
b101000 P
b1100 '
0#
#1442000
b101100 5
b101100 Q
b101100 S
#1444000
b1111111111111111111111111111111111111111111111111111111111110100 :
b1111111111111111111111111111111111111111111111111111111111110100 R
b1111111111111111111111111111111111111111111111111111111111110100 \
bx0x0x @
bx0x0x B
b10 +
b10 H
b10 Z
bx ?
bx D
bx G
1*
x<
0.
x=
x2
b111x1 ,
b111x1 X
b11111111111111111111111101 [
b10111111 4
b10111111 F
b11111 -
b11111 W
b11101 3
b11101 Y
b10111111111111111111111111101 9
b10111111111111111111111111101 O
#1446000
bx @
bx B
bx /
bx J
bx U
b0 0
b0 C
b0 T
#1447000
b11100 5
b11100 Q
b11100 S
#1500000
1#
#1560000
b11100 "
b11100 A
b11100 N
b11100 P
b1101 '
0#
#1563000
b10000 5
b10000 Q
b10000 S
#1564000
b11 +
b11 H
b11 Z
b111 ?
b111 D
b111 G
0*
1<
0=
12
b10000 :
b10000 R
b10000 \
b1100 ,
b1100 X
b10001100 [
b10110100000 4
b10110100000 F
b100 -
b100 W
b1100 3
b1100 Y
b10110100000000000000000010001100 9
b10110100000000000000000010001100 O
#1566000
b1110 @
b1110 B
b1110 /
b1110 J
b1110 U
bx 0
bx C
bx T
#1567000
b101100 5
b101100 Q
b101100 S
#1584000
bx 1
bx V
bx >
bx E
bx I
#1585000
x)
#1586000
b1110 1
b1110 V
b1110 >
b1110 E
b1110 I
#1587000
0)
b100000 5
b100000 Q
b100000 S
#1620000
1#
#1680000
b100000 "
b100000 A
b100000 N
b100000 P
b1110 '
0#
#1682000
b100100 5
b100100 Q
b100100 S
#1684000
bx +
bx H
bx Z
b10 ?
b10 D
b10 G
0<
1.
02
b10010000000110100 :
b10010000000110100 R
b10010000000110100 \
b1001 ,
b1001 X
b11000010010000000110101101 [
b10001011000 4
b10001011000 F
b1101 -
b1101 W
b1101 3
b1101 Y
b10001011000010010000000110101101 9
b10001011000010010000000110101101 O
#1686000
b1 @
b1 B
b1 /
b1 J
b1 U
b1 0
b1 C
b1 T
#1704000
bx 1
bx V
bx >
bx E
bx I
#1705000
x)
#1706000
b10 1
b10 V
b10 >
b10 E
b10 I
#1707000
0)
#1740000
1#
#1800000
b100100 "
b100100 A
b100100 N
b100100 P
b1111 '
0#
#1802000
b101000 5
b101000 Q
b101000 S
#1804000
b110 ?
b110 D
b110 G
b11000010010000000110001100 [
b11001011000 4
b11001011000 F
b1100 -
b1100 W
b1100 3
b1100 Y
b11001011000010010000000110001100 9
b11001011000010010000000110001100 O
#1806000
b1110 0
b1110 C
b1110 T
#1824000
b0 1
b0 V
b0 >
b0 E
b0 I
#1825000
1)
#1826000
b1101 1
b1101 V
b1101 >
b1101 E
b1101 I
#1827000
0)
#1860000
1#
#1920000
b101000 "
b101000 A
b101000 N
b101000 P
b10000 '
0#
#1922000
b101100 5
b101100 Q
b101100 S
#1924000
b1111111111111111111111111111111111111111111111111111111111110100 :
b1111111111111111111111111111111111111111111111111111111111110100 R
b1111111111111111111111111111111111111111111111111111111111110100 \
bx0x0x @
bx0x0x B
b10 +
b10 H
b10 Z
bx ?
bx D
bx G
1*
x<
0.
x=
x2
b111x1 ,
b111x1 X
b11111111111111111111111101 [
b10111111 4
b10111111 F
b11111 -
b11111 W
b11101 3
b11101 Y
b10111111111111111111111111101 9
b10111111111111111111111111101 O
#1926000
bx @
bx B
bx /
bx J
bx U
b0 0
b0 C
b0 T
#1927000
b11100 5
b11100 Q
b11100 S
#1980000
1#
#2040000
b11100 "
b11100 A
b11100 N
b11100 P
b10001 '
0#
#2043000
b10000 5
b10000 Q
b10000 S
#2044000
b11 +
b11 H
b11 Z
b111 ?
b111 D
b111 G
0*
1<
0=
12
b10000 :
b10000 R
b10000 \
b1100 ,
b1100 X
b10001100 [
b10110100000 4
b10110100000 F
b100 -
b100 W
b1100 3
b1100 Y
b10110100000000000000000010001100 9
b10110100000000000000000010001100 O
#2046000
b1101 @
b1101 B
b1101 /
b1101 J
b1101 U
bx 0
bx C
bx T
#2047000
b101100 5
b101100 Q
b101100 S
#2064000
bx 1
bx V
bx >
bx E
bx I
#2065000
x)
#2066000
b1101 1
b1101 V
b1101 >
b1101 E
b1101 I
#2067000
0)
b100000 5
b100000 Q
b100000 S
#2100000
1#
#2160000
b100000 "
b100000 A
b100000 N
b100000 P
b10010 '
0#
#2162000
b100100 5
b100100 Q
b100100 S
#2164000
bx +
bx H
bx Z
b10 ?
b10 D
b10 G
0<
1.
02
b10010000000110100 :
b10010000000110100 R
b10010000000110100 \
b1001 ,
b1001 X
b11000010010000000110101101 [
b10001011000 4
b10001011000 F
b1101 -
b1101 W
b1101 3
b1101 Y
b10001011000010010000000110101101 9
b10001011000010010000000110101101 O
#2166000
b1 @
b1 B
b1 /
b1 J
b1 U
b10 0
b10 C
b10 T
#2184000
bx 1
bx V
bx >
bx E
bx I
#2185000
x)
#2186000
b11 1
b11 V
b11 >
b11 E
b11 I
#2187000
0)
#2220000
1#
#2280000
b100100 "
b100100 A
b100100 N
b100100 P
b10011 '
0#
#2282000
b101000 5
b101000 Q
b101000 S
#2284000
b110 ?
b110 D
b110 G
b11000010010000000110001100 [
b11001011000 4
b11001011000 F
b1100 -
b1100 W
b1100 3
b1100 Y
b11001011000010010000000110001100 9
b11001011000010010000000110001100 O
#2286000
b1101 0
b1101 C
b1101 T
#2304000
b1 1
b1 V
b1 >
b1 E
b1 I
#2306000
b1100 1
b1100 V
b1100 >
b1100 E
b1100 I
#2340000
1#
#2400000
b101000 "
b101000 A
b101000 N
b101000 P
b10100 '
0#
#2402000
b101100 5
b101100 Q
b101100 S
#2404000
b1111111111111111111111111111111111111111111111111111111111110100 :
b1111111111111111111111111111111111111111111111111111111111110100 R
b1111111111111111111111111111111111111111111111111111111111110100 \
bx0x0x @
bx0x0x B
b10 +
b10 H
b10 Z
bx ?
bx D
bx G
1*
x<
0.
x=
x2
b111x1 ,
b111x1 X
b11111111111111111111111101 [
b10111111 4
b10111111 F
b11111 -
b11111 W
b11101 3
b11101 Y
b10111111111111111111111111101 9
b10111111111111111111111111101 O
#2406000
bx @
bx B
bx /
bx J
bx U
b0 0
b0 C
b0 T
#2407000
b11100 5
b11100 Q
b11100 S
#2460000
1#
#2520000
b11100 "
b11100 A
b11100 N
b11100 P
b10101 '
0#
#2523000
b10000 5
b10000 Q
b10000 S
#2524000
b11 +
b11 H
b11 Z
b111 ?
b111 D
b111 G
0*
1<
0=
12
b10000 :
b10000 R
b10000 \
b1100 ,
b1100 X
b10001100 [
b10110100000 4
b10110100000 F
b100 -
b100 W
b1100 3
b1100 Y
b10110100000000000000000010001100 9
b10110100000000000000000010001100 O
#2526000
b1100 @
b1100 B
b1100 /
b1100 J
b1100 U
bx 0
bx C
bx T
#2527000
b101100 5
b101100 Q
b101100 S
#2544000
bx 1
bx V
bx >
bx E
bx I
#2545000
x)
#2546000
b1100 1
b1100 V
b1100 >
b1100 E
b1100 I
#2547000
0)
b100000 5
b100000 Q
b100000 S
#2580000
1#
#2640000
b100000 "
b100000 A
b100000 N
b100000 P
b10110 '
0#
#2642000
b100100 5
b100100 Q
b100100 S
#2644000
bx +
bx H
bx Z
b10 ?
b10 D
b10 G
0<
1.
02
b10010000000110100 :
b10010000000110100 R
b10010000000110100 \
b1001 ,
b1001 X
b11000010010000000110101101 [
b10001011000 4
b10001011000 F
b1101 -
b1101 W
b1101 3
b1101 Y
b10001011000010010000000110101101 9
b10001011000010010000000110101101 O
#2646000
b1 @
b1 B
b1 /
b1 J
b1 U
b11 0
b11 C
b11 T
#2664000
bx 1
bx V
bx >
bx E
bx I
#2665000
x)
#2666000
b100 1
b100 V
b100 >
b100 E
b100 I
#2667000
0)
#2700000
1#
#2760000
b100100 "
b100100 A
b100100 N
b100100 P
b10111 '
0#
#2762000
b101000 5
b101000 Q
b101000 S
#2764000
b110 ?
b110 D
b110 G
b11000010010000000110001100 [
b11001011000 4
b11001011000 F
b1100 -
b1100 W
b1100 3
b1100 Y
b11001011000010010000000110001100 9
b11001011000010010000000110001100 O
#2766000
b1100 0
b1100 C
b1100 T
#2784000
b10 1
b10 V
b10 >
b10 E
b10 I
#2786000
b1011 1
b1011 V
b1011 >
b1011 E
b1011 I
#2820000
1#
#2880000
b101000 "
b101000 A
b101000 N
b101000 P
b11000 '
0#
#2882000
b101100 5
b101100 Q
b101100 S
#2884000
b1111111111111111111111111111111111111111111111111111111111110100 :
b1111111111111111111111111111111111111111111111111111111111110100 R
b1111111111111111111111111111111111111111111111111111111111110100 \
bx0x0x @
bx0x0x B
b10 +
b10 H
b10 Z
bx ?
bx D
bx G
1*
x<
0.
x=
x2
b111x1 ,
b111x1 X
b11111111111111111111111101 [
b10111111 4
b10111111 F
b11111 -
b11111 W
b11101 3
b11101 Y
b10111111111111111111111111101 9
b10111111111111111111111111101 O
#2886000
bx @
bx B
bx /
bx J
bx U
b0 0
b0 C
b0 T
#2887000
b11100 5
b11100 Q
b11100 S
#2940000
1#
#3000000
b11100 "
b11100 A
b11100 N
b11100 P
b11001 '
0#
#3003000
b10000 5
b10000 Q
b10000 S
#3004000
b11 +
b11 H
b11 Z
b111 ?
b111 D
b111 G
0*
1<
0=
12
b10000 :
b10000 R
b10000 \
b1100 ,
b1100 X
b10001100 [
b10110100000 4
b10110100000 F
b100 -
b100 W
b1100 3
b1100 Y
b10110100000000000000000010001100 9
b10110100000000000000000010001100 O
#3006000
b1011 @
b1011 B
b1011 /
b1011 J
b1011 U
bx 0
bx C
bx T
#3007000
b101100 5
b101100 Q
b101100 S
#3024000
bx 1
bx V
bx >
bx E
bx I
#3025000
x)
#3026000
b1011 1
b1011 V
b1011 >
b1011 E
b1011 I
#3027000
0)
b100000 5
b100000 Q
b100000 S
#3060000
1#
#3120000
b100000 "
b100000 A
b100000 N
b100000 P
b11010 '
0#
#3122000
b100100 5
b100100 Q
b100100 S
#3124000
bx +
bx H
bx Z
b10 ?
b10 D
b10 G
0<
1.
02
b10010000000110100 :
b10010000000110100 R
b10010000000110100 \
b1001 ,
b1001 X
b11000010010000000110101101 [
b10001011000 4
b10001011000 F
b1101 -
b1101 W
b1101 3
b1101 Y
b10001011000010010000000110101101 9
b10001011000010010000000110101101 O
#3126000
b1 @
b1 B
b1 /
b1 J
b1 U
b100 0
b100 C
b100 T
#3144000
bx 1
bx V
bx >
bx E
bx I
#3145000
x)
#3146000
b101 1
b101 V
b101 >
b101 E
b101 I
#3147000
0)
#3180000
1#
#3240000
b100100 "
b100100 A
b100100 N
b100100 P
b11011 '
0#
#3242000
b101000 5
b101000 Q
b101000 S
#3244000
b110 ?
b110 D
b110 G
b11000010010000000110001100 [
b11001011000 4
b11001011000 F
b1100 -
b1100 W
b1100 3
b1100 Y
b11001011000010010000000110001100 9
b11001011000010010000000110001100 O
#3246000
b1011 0
b1011 C
b1011 T
#3264000
b11 1
b11 V
b11 >
b11 E
b11 I
#3266000
b1010 1
b1010 V
b1010 >
b1010 E
b1010 I
#3300000
1#
#3360000
b101000 "
b101000 A
b101000 N
b101000 P
b11100 '
0#
#3362000
b101100 5
b101100 Q
b101100 S
#3364000
b1111111111111111111111111111111111111111111111111111111111110100 :
b1111111111111111111111111111111111111111111111111111111111110100 R
b1111111111111111111111111111111111111111111111111111111111110100 \
bx0x0x @
bx0x0x B
b10 +
b10 H
b10 Z
bx ?
bx D
bx G
1*
x<
0.
x=
x2
b111x1 ,
b111x1 X
b11111111111111111111111101 [
b10111111 4
b10111111 F
b11111 -
b11111 W
b11101 3
b11101 Y
b10111111111111111111111111101 9
b10111111111111111111111111101 O
#3366000
bx @
bx B
bx /
bx J
bx U
b0 0
b0 C
b0 T
#3367000
b11100 5
b11100 Q
b11100 S
#3420000
1#
#3480000
b11100 "
b11100 A
b11100 N
b11100 P
b11101 '
0#
#3483000
b10000 5
b10000 Q
b10000 S
#3484000
b11 +
b11 H
b11 Z
b111 ?
b111 D
b111 G
0*
1<
0=
12
b10000 :
b10000 R
b10000 \
b1100 ,
b1100 X
b10001100 [
b10110100000 4
b10110100000 F
b100 -
b100 W
b1100 3
b1100 Y
b10110100000000000000000010001100 9
b10110100000000000000000010001100 O
#3486000
b1010 @
b1010 B
b1010 /
b1010 J
b1010 U
bx 0
bx C
bx T
#3487000
b101100 5
b101100 Q
b101100 S
#3504000
bx 1
bx V
bx >
bx E
bx I
#3505000
x)
#3506000
b1010 1
b1010 V
b1010 >
b1010 E
b1010 I
#3507000
0)
b100000 5
b100000 Q
b100000 S
#3540000
1#
#3600000
b100000 "
b100000 A
b100000 N
b100000 P
b11110 '
0#
#3602000
b100100 5
b100100 Q
b100100 S
#3604000
bx +
bx H
bx Z
b10 ?
b10 D
b10 G
0<
1.
02
b10010000000110100 :
b10010000000110100 R
b10010000000110100 \
b1001 ,
b1001 X
b11000010010000000110101101 [
b10001011000 4
b10001011000 F
b1101 -
b1101 W
b1101 3
b1101 Y
b10001011000010010000000110101101 9
b10001011000010010000000110101101 O
#3606000
b1 @
b1 B
b1 /
b1 J
b1 U
b101 0
b101 C
b101 T
#3624000
bx 1
bx V
bx >
bx E
bx I
#3625000
x)
#3626000
b110 1
b110 V
b110 >
b110 E
b110 I
#3627000
0)
#3660000
1#
#3720000
b100100 "
b100100 A
b100100 N
b100100 P
b11111 '
0#
#3722000
b101000 5
b101000 Q
b101000 S
#3724000
b110 ?
b110 D
b110 G
b11000010010000000110001100 [
b11001011000 4
b11001011000 F
b1100 -
b1100 W
b1100 3
b1100 Y
b11001011000010010000000110001100 9
b11001011000010010000000110001100 O
#3726000
b1010 0
b1010 C
b1010 T
#3744000
b100 1
b100 V
b100 >
b100 E
b100 I
#3746000
b1001 1
b1001 V
b1001 >
b1001 E
b1001 I
#3780000
1#
#3840000
b101000 "
b101000 A
b101000 N
b101000 P
b100000 '
0#
#3842000
b101100 5
b101100 Q
b101100 S
#3844000
b1111111111111111111111111111111111111111111111111111111111110100 :
b1111111111111111111111111111111111111111111111111111111111110100 R
b1111111111111111111111111111111111111111111111111111111111110100 \
bx0x0x @
bx0x0x B
b10 +
b10 H
b10 Z
bx ?
bx D
bx G
1*
x<
0.
x=
x2
b111x1 ,
b111x1 X
b11111111111111111111111101 [
b10111111 4
b10111111 F
b11111 -
b11111 W
b11101 3
b11101 Y
b10111111111111111111111111101 9
b10111111111111111111111111101 O
#3846000
bx @
bx B
bx /
bx J
bx U
b0 0
b0 C
b0 T
#3847000
b11100 5
b11100 Q
b11100 S
#3900000
1#
#3960000
b11100 "
b11100 A
b11100 N
b11100 P
b100001 '
0#
#3963000
b10000 5
b10000 Q
b10000 S
#3964000
b11 +
b11 H
b11 Z
b111 ?
b111 D
b111 G
0*
1<
0=
12
b10000 :
b10000 R
b10000 \
b1100 ,
b1100 X
b10001100 [
b10110100000 4
b10110100000 F
b100 -
b100 W
b1100 3
b1100 Y
b10110100000000000000000010001100 9
b10110100000000000000000010001100 O
#3966000
b1001 @
b1001 B
b1001 /
b1001 J
b1001 U
bx 0
bx C
bx T
#3967000
b101100 5
b101100 Q
b101100 S
#3984000
bx 1
bx V
bx >
bx E
bx I
#3985000
x)
#3986000
b1001 1
b1001 V
b1001 >
b1001 E
b1001 I
#3987000
0)
b100000 5
b100000 Q
b100000 S
#4020000
1#
#4080000
b100000 "
b100000 A
b100000 N
b100000 P
b100010 '
0#
#4082000
b100100 5
b100100 Q
b100100 S
#4084000
bx +
bx H
bx Z
b10 ?
b10 D
b10 G
0<
1.
02
b10010000000110100 :
b10010000000110100 R
b10010000000110100 \
b1001 ,
b1001 X
b11000010010000000110101101 [
b10001011000 4
b10001011000 F
b1101 -
b1101 W
b1101 3
b1101 Y
b10001011000010010000000110101101 9
b10001011000010010000000110101101 O
#4086000
b1 @
b1 B
b1 /
b1 J
b1 U
b110 0
b110 C
b110 T
#4104000
bx 1
bx V
bx >
bx E
bx I
#4105000
x)
#4106000
b111 1
b111 V
b111 >
b111 E
b111 I
#4107000
0)
#4140000
1#
#4200000
b100100 "
b100100 A
b100100 N
b100100 P
b100011 '
0#
#4202000
b101000 5
b101000 Q
b101000 S
#4204000
b110 ?
b110 D
b110 G
b11000010010000000110001100 [
b11001011000 4
b11001011000 F
b1100 -
b1100 W
b1100 3
b1100 Y
b11001011000010010000000110001100 9
b11001011000010010000000110001100 O
#4206000
b1001 0
b1001 C
b1001 T
#4224000
b101 1
b101 V
b101 >
b101 E
b101 I
#4226000
b1000 1
b1000 V
b1000 >
b1000 E
b1000 I
#4260000
1#
#4320000
b101000 "
b101000 A
b101000 N
b101000 P
b100100 '
0#
#4322000
b101100 5
b101100 Q
b101100 S
#4324000
b1111111111111111111111111111111111111111111111111111111111110100 :
b1111111111111111111111111111111111111111111111111111111111110100 R
b1111111111111111111111111111111111111111111111111111111111110100 \
bx0x0x @
bx0x0x B
b10 +
b10 H
b10 Z
bx ?
bx D
bx G
1*
x<
0.
x=
x2
b111x1 ,
b111x1 X
b11111111111111111111111101 [
b10111111 4
b10111111 F
b11111 -
b11111 W
b11101 3
b11101 Y
b10111111111111111111111111101 9
b10111111111111111111111111101 O
#4326000
bx @
bx B
bx /
bx J
bx U
b0 0
b0 C
b0 T
#4327000
b11100 5
b11100 Q
b11100 S
#4380000
1#
#4440000
b11100 "
b11100 A
b11100 N
b11100 P
b100101 '
0#
#4443000
b10000 5
b10000 Q
b10000 S
#4444000
b11 +
b11 H
b11 Z
b111 ?
b111 D
b111 G
0*
1<
0=
12
b10000 :
b10000 R
b10000 \
b1100 ,
b1100 X
b10001100 [
b10110100000 4
b10110100000 F
b100 -
b100 W
b1100 3
b1100 Y
b10110100000000000000000010001100 9
b10110100000000000000000010001100 O
#4446000
b1000 @
b1000 B
b1000 /
b1000 J
b1000 U
bx 0
bx C
bx T
#4447000
b101100 5
b101100 Q
b101100 S
#4464000
bx 1
bx V
bx >
bx E
bx I
#4465000
x)
#4466000
b1000 1
b1000 V
b1000 >
b1000 E
b1000 I
#4467000
0)
b100000 5
b100000 Q
b100000 S
#4500000
1#
#4560000
b100000 "
b100000 A
b100000 N
b100000 P
b100110 '
0#
#4562000
b100100 5
b100100 Q
b100100 S
#4564000
bx +
bx H
bx Z
b10 ?
b10 D
b10 G
0<
1.
02
b10010000000110100 :
b10010000000110100 R
b10010000000110100 \
b1001 ,
b1001 X
b11000010010000000110101101 [
b10001011000 4
b10001011000 F
b1101 -
b1101 W
b1101 3
b1101 Y
b10001011000010010000000110101101 9
b10001011000010010000000110101101 O
#4566000
b1 @
b1 B
b1 /
b1 J
b1 U
b111 0
b111 C
b111 T
#4584000
bx 1
bx V
bx >
bx E
bx I
#4585000
x)
#4586000
b1000 1
b1000 V
b1000 >
b1000 E
b1000 I
#4587000
0)
#4620000
1#
#4680000
b100100 "
b100100 A
b100100 N
b100100 P
b100111 '
0#
#4682000
b101000 5
b101000 Q
b101000 S
#4684000
b110 ?
b110 D
b110 G
b11000010010000000110001100 [
b11001011000 4
b11001011000 F
b1100 -
b1100 W
b1100 3
b1100 Y
b11001011000010010000000110001100 9
b11001011000010010000000110001100 O
#4685000
b1000 0
b1000 C
b1000 T
#4704000
b110 1
b110 V
b110 >
b110 E
b110 I
#4705000
b111 1
b111 V
b111 >
b111 E
b111 I
#4740000
1#
#4800000
b101000 "
b101000 A
b101000 N
b101000 P
b101000 '
0#
#4802000
b101100 5
b101100 Q
b101100 S
